55 4 113
51 21 112
99 23 119
8 98 119
21 58 113
80 12 116
48 72 113
9 79 116
46 13 112
10 65 113
9 74 116
57 37 113
14 16 18
52 74 116
77 19 116
99 68 119
11 83 116
78 65 116
44 46 17
55 52 113
37 8 112
23 66 113
85 72 116
89 75 111
36 4 112
37 62 113
69 84 116
94 77 111
56 44 113
63 92 116
921 164 179
385 795 171
148 518 144
278 483 144
811 424 171
339 174 144
694 111 145
871 485 179
936 240 179
159 348 144
925 229 179
726 539 171
244 75 128
490 188 144
771 283 171
74 115 119
721 20 171
315 463 144
878 514 179
778 196 171
663 877 179
923 363 179
614 632 132
96 47 116
375 563 142
718 884 179
565 312 144
433 981 179
602 247 144
384 234 144
3701 2366 217
5059 3285 238
806 3529 217
4873 3319 238
7029 5410 262
9358 9060 260
4129 4437 215
9633 4400 262
5740 9626 262
6691 3540 262
1459 1839 180
7387 1481 262
3996 1425 238
4503 5776 236
6824 4200 262
6702 6107 262
6568 6397 200
7024 6012 262
955 6552 262
3934 2472 238
44053 85450 351
83366 50166 351
38172 85411 351
15703 40602 324
99660 20817 351
7603 67161 340
94842 76343 351
82002 18249 351
72934 66277 325
49523 61255 340
59097 75994 335
71758 7108 340
45966 3186 324
88260 69196 351
34957 20941 311
80536 27284 351
38418 35551 324
20535 83488 351
83693 65933 351
92242 18958 351
889602 375370 525
262573 385506 441
147472 554350 470
299343 750831 509
274831 46256 443
684730 132415 509
272818 98560 443
752340 883039 525
720685 393092 509
41412 581194 470
873008 433196 525
900729 829649 525
757072 564276 509
645924 110819 509
733319 16246 509
11462 844799 525
69330 799209 509
539235 808179 509
647544 632250 416
438294 823695 509
384107 255685 441
942270 255019 525
709191 477552 509
215382 7122 383
919031 592420 525
963811 671882 525
22967 448553 449
425926 393345 449
665012 52189 509
840369 397270 525
