1 10 20
100 200 125
201 210 89
900 1000 174
4 13 20
7 26 24
8 91 116
6 80 116
4 56 113
6 73 116
7 62 113
3 70 113
10 96 116
2 81 116
3 5 8
8 25 24
1 84 116
10 27 112
4 36 112
7 46 112
1 29 112
7 13 20
3 57 113
7 24 21
2 95 116
9 82 116
8 45 112
10 14 18
3 67 113
1 34 112
3 64 113
4 43 112
8 50 112
6 87 116
10 76 116
3 78 116
3 88 116
9 84 116
10 51 112
8 54 113
4 99 119
7 32 112
2 60 113
3 76 116
10 68 113
4 39 112
2 12 20
10 26 24
5 86 116
8 94 116
9 39 112
5 95 116
6 70 113
1 34 112
79 723 171
68 2618 209
2 2245 183
98 2846 209
3 3451 217
18 2921 217
93 3555 217
53 2379 183
57 7488 262
2 7764 262
81 8228 262
87 9841 262
42 2350 183
66 5193 238
90 1500 182
45 7034 262
20 7764 262
41 124 119
30 4914 238
32 6987 262
18 5856 238
98 3743 238
72 6491 262
82 2227 183
76 8365 262
10 9859 262
28 1936 182
68 1432 182
57 2551 209
98 6437 262
54 9228 262
87 3275 217
66 5407 238
7 1474 182
84 6121 238
20 8858 262
25 4395 238
29 6029 238
72 1237 182
33 8235 262
30 3793 238
4 5818 238
20 4428 238
71 6143 238
69 1011 179
9 5928 238
16 9529 262
41 8776 262
50 2404 183
97 4443 238
5764 69786 340
4614 7669 262
4539 38082 324
8607 88464 351
6841 10197 260
2905 39507 324
4819 59355 340
5129 28804 308
689 76348 340
7370 78611 351
7918 73622 340
9918 27828 308
6997 49299 324
3325 87343 351
7744 95746 351
9471 35568 311
2184 54340 340
8491 55422 340
5500 23311 279
9773 13810 276
6726 67605 340
5645 21801 279
5591 25661 282
7506 73730 340
8140 44878 324
11306 903881 525
29321 684930 509
78737 808933 509
79445 845894 525
48627 158660 383
48523 370163 443
3466 657199 509
86709 387981 443
73417 548899 470
8283 252996 443
13259 152959 375
12925 713773 509
67638 272813 443
42063 739668 509
5625 187190 383
62601 681095 509
32037 952926 525
33453 116466 354
11900 365084 443
19380 911340 525
45551 422090 449
47469 327684 443
90072 443376 449
974 855542 525
87132 755936 509
39383 80887 351
42777 86916 351
47793 88336 351
35386 60493 340
16649 91422 351
2362 90028 351
18690 70060 340
47763 63927 340
30540 83427 351
39172 55737 340
5211 95369 351
2567 56430 340
15782 71531 340
22862 65124 340
24067 53136 340
13929 79803 351
34022 73059 340
33069 98168 351
11393 68457 340
25011 78043 351
26229 77374 351
34421 94920 351
13784 98538 351
25198 94325 351
48315 64371 340
16413 53527 340
26091 68981 340
9956 91874 351
6862 99171 351
6996 97282 351
2305 70926 340
27084 86328 351
10336 76506 340
846 71730 340
11313 75858 340
16124 53896 340
19582 50546 324
48814 83368 351
15434 90365 351
44043 63751 340
21087 76809 340
17276 97179 351
45788 93585 351
5403 52652 340
42754 62400 340
49932 95061 351
49676 93369 351
47739 60013 340
36226 98587 351
48094 97540 351
40795 80571 351
1434 60379 340
47467 66602 340
10097 62903 340
23317 70493 340
26652 60757 340
47301 60281 340
24286 59442 340
3865 79690 351
28444 96620 351
8440 94730 351
8031 58118 340
38097 55772 340
34481 90676 351
20709 98928 351
4567 77857 351
29497 72354 340
4586 76966 340
5306 64684 340
6219 78625 351
