1 10 20
100 200 125
201 210 89
900 1000 174
1 3 8
3 1 8
1 100 119
51 100 119
100002 100005 54
10 100005 351
17767 15900 279
11483 16741 276
10693 14901 276
17129 17573 235
19040 12787 279
12250 14510 276
15892 18516 279
11748 15465 276
19179 15179 279
10276 14651 276
10827 14266 276
16924 15479 266
15612 15633 253
17805 17396 279
19037 11704 279
16117 12408 276
11355 16221 276
13078 17397 276
11752 19160 279
19747 15992 279
19428 15963 279
11310 15591 276
12768 19016 279
17239 14866 271
15762 15365 253
18115 18936 261
13651 12925 276
17711 15865 279
17204 13686 271
15946 18196 279
17698 18390 248
14392 16181 271
12001 15311 276
18327 14270 279
13892 10575 276
14139 17543 271
16934 17007 204
17974 19328 261
16357 17609 266
13308 13698 245
13062 12062 263
12386 13639 276
11929 18418 279
17709 19743 274
19874 12216 279
19347 18256 261
18176 11208 279
17347 17027 235
19012 14522 279
10673 19785 279
12351 10939 268
10682 11895 268
17995 13983 279
15999 14895 271
15437 12257 276
12488 16293 276
18890 19941 274
11669 11998 250
17171 16713 266
19700 17476 279
17954 16534 279
13209 15584 276
12135 19173 279
17676 16310 279
19586 15775 279
13238 17158 276
11080 16488 276
14303 12145 276
19028 11411 279
10917 10871 193
18899 15304 279
12853 14431 276
19912 10051 279
17367 11655 276
16621 12670 276
10463 13331 276
19519 17194 279
19293 11914 279
17139 10391 276
18963 18405 261
17150 19210 279
10175 12722 268
19233 17938 261
19579 18676 261
10661 14528 276
13138 19413 279
10033 18820 279
16255 19958 279
18658 13353 279
19640 17090 279
14293 16112 271
13725 13627 183
10095 14070 276
13113 14800 276
10149 10648 255
17265 10820 276
10261 11563 268
15891 17560 266
15374 11825 276
12708 16610 276
11159 16475 276
18274 15831 279
13108 11794 263
19370 14290 279
17869 14152 279
16319 14143 271
14460 18928 279
15454 12956 276
18459 12180 279
13858 10550 276
17635 11323 276
14983 16339 271
10499 11805 268
10620 13362 276
15487 12049 276
18946 10525 279
14385 13057 276
17745 18162 248
16814 16545 266
12763 14133 276
16471 12078 276
19112 10894 279
19103 15082 279
18304 17554 279
15500 11847 276
12041 17287 276
15713 18655 279
13685 13539 245
14905 11381 276
17652 10129 279
18099 15525 279
12524 18105 279
12057 14739 276
18793 17800 261
16512 18779 279
18997 18153 261
10277 15231 276
17872 10331 279
11175 14924 276
10555 14791 276
12860 12998 201
16641 13798 271
10769 18380 279
17876 13304 279
15823 14548 271
11391 12457 263
12082 16824 276
12709 10605 268
11427 14812 276
17980 13155 279
16485 17376 266
15768 16862 266
13276 18684 279
15980 10548 276
12344 12297 263
16972 14163 271
16008 16351 235
11320 15363 276
12794 12442 263
18433 16282 279
18829 10046 279
11056 12443 263
14913 13700 271
15217 15023 271
10572 17151 276
19075 19643 274
19268 16078 279
19407 17442 279
10867 18576 279
11501 16646 276
10555 14791 276
12860 12998 201
16641 13798 271
10769 18380 279
17876 13304 279
15823 14548 271
11391 12457 263
12082 16824 276
12709 10605 268
11427 14812 276
17980 13155 279
16485 17376 266
15768 16862 266
13276 18684 279
15980 10548 276
12344 12297 263
16972 14163 271
16008 16351 235
11320 15363 276
12794 12442 263
18433 16282 279
18829 10046 279
11056 12443 263
14913 13700 271
15217 15023 271
10572 17151 276
19075 19643 274
19268 16078 279
19407 17442 279
10867 18576 279
11501 16646 276
